[gd_scene load_steps=3 format=1]

[ext_resource path="res://scenes/Main.gd" type="Script" id=1]
[ext_resource path="res://objects/board.tscn" type="PackedScene" id=2]

[node name="Main" type="Node2D"]

script/script = ExtResource( 1 )

[node name="Board" parent="." instance=ExtResource( 2 )]

transform/pos = Vector2( 320, 24 )
rows = 9

[node name="RightPanel" type="Panel" parent="."]

focus/ignore_mouse = false
focus/stop_mouse = true
size_flags/horizontal = 2
size_flags/vertical = 2
margin/left = 704.0
margin/top = 0.0
margin/right = 1024.0
margin/bottom = 600.0

[node name="Panel" type="Panel" parent="."]

focus/ignore_mouse = false
focus/stop_mouse = true
size_flags/horizontal = 2
size_flags/vertical = 2
margin/left = 0.0
margin/top = 0.0
margin/right = 320.0
margin/bottom = 600.0

[node name="Score" type="Label" parent="Panel"]

focus/ignore_mouse = true
focus/stop_mouse = true
size_flags/horizontal = 2
size_flags/vertical = 0
margin/left = 0.0
margin/top = 0.0
margin/right = 40.0
margin/bottom = 14.0
text = "Test"
percent_visible = 1.0
lines_skipped = 0
max_lines_visible = -1

[node name="Combo" type="Label" parent="Panel"]

focus/ignore_mouse = true
focus/stop_mouse = true
size_flags/horizontal = 2
size_flags/vertical = 0
margin/left = 0.0
margin/top = 25.0
margin/right = 40.0
margin/bottom = 39.0
text = "Test"
percent_visible = 1.0
lines_skipped = 0
max_lines_visible = -1

[node name="MovesLeft" type="Label" parent="Panel"]

focus/ignore_mouse = true
focus/stop_mouse = true
size_flags/horizontal = 2
size_flags/vertical = 0
margin/left = 0.0
margin/top = 73.0
margin/right = 40.0
margin/bottom = 87.0
text = "Test"
percent_visible = 1.0
lines_skipped = 0
max_lines_visible = -1

[node name="Chain" type="Label" parent="Panel"]

focus/ignore_mouse = true
focus/stop_mouse = true
size_flags/horizontal = 2
size_flags/vertical = 0
margin/left = 0.0
margin/top = 41.0
margin/right = 40.0
margin/bottom = 55.0
text = "Test"
percent_visible = 1.0
lines_skipped = 0
max_lines_visible = -1


